# <%%>Генерация HTML из модели

echo = <<
    <?php echo <%it%>; ?>
>>

rowValue[fieldType = Derived] = <<
    $this->model-><%name%>($row)
>>

rowValue = <<
    $row['<%name%>']
>>

rowIndex = <<
    $row['<%it:indexName%>']
>>

safe = <<
    htmlspecialchars(<%it%>)
>>

index = <<
    <!DOCTYPE HTML>
    <html>
        <%it:pageHeader%>
        <body>
            <div id="container">
                <div id="header">
                    <div class="wrapper">
                        <a href="../../" class="top">&#8678;</a>                
                        <div id="login">
                            <?php if($data['login']): ?>
                                <a href="?class=session&method=logout">выход</a>
                            <?php else: ?>
                                <span>авторизация</span>
                                <form method="post" action="?class=session&method=login">
                                    <p><label>логин</label><input name="login"></p>
                                    <p><label>пароль</label><input name="password" type="password"></p>
                                    <button type="submit">вход</button>
                                </form>
                            <?php endif ?>
                        </div>
                    </div>
                </div>
                <div id="sidebar">
                    <ul>
                        <%it:menuItem*:join%>
                    </ul>
                    
                    <%it:bookmarkMenu%>
                </div>
                <div id="content">
                    <?php echo $data['content']; ?>
                </div>
            </div>
        </body>
    </html>
>>

bookmarkMenu = <<
>>

# В меню показываем только модели которые не завистя от других
menuItem[adjective = True] = << >>

# Class.menuItem 
menuItem[type = Group] = <<
    <li class="group <?php echo ($data['group'] != '<%groupName:lowercase%>') ? 'hide' : ''; ?>">
        <a class="name"><%it:groupLabel%></a>
        <ul>
            <%types:menuItem*:join%>
        </ul>
    </li>
>>

groupLabel = <<
    <%groupName%>
>>

# Class.menuItem 
menuItem[type = Class] = <<
    <li class="<?php echo ('<%className:lowercase%>' == $data['active_class']) ? 'active' : ''; ?>"><a href="?class=<%className:lowercase%>"><%it:label%></a></li>
>>

label = <<
    <%className%>
>>

encoding = << utf-8>>

pageHeader = <<
    <head>
        <title><?php echo $data['class']; ?> : <?php echo $data['method']; ?> </title>
        <meta http-equiv="content-type" content="text/html; charset=<%it:encoding%>"/>
        
        <?php echo script("js/core.js"); ?>

        <?php echo style("css/style.less.css", 'stylesheet/less'); ?>
        <?php echo style("css/widget.css", 'stylesheet'); ?>
        <?php echo style("css/custom.css", 'stylesheet'); ?>

        <?php echo script("js/vizualize.js") ?>
        <?php echo script("js/widget.js") ?>
        <?php echo script("js/less.js"); ?>
        <?php echo script("js/script.js") ?>
    </head>
>>

renderListPage = <<
    <%it:requireCss%>
    <%it:requireJs%>

    <%it:pathView%>

    <%it:listPageMenu%>
    <%it:tableList%>
>>

pathgen[type = OneToMany](class) = <<
    <a href="?class=<%reference.className:lowercase%>"><%reference:label%></a> [<b><?php echo $data['parent_name'] ?></b>] &raquo; <%class:label%>
>>

pathView = <<
    <div class="path">
        <?php foreach($data['view_path'] as $item): ?>
            <?php if (count($item) == 3): ?>
            <a href="?class=<?php echo $item[1]; ?>"><?php echo $item[0]; ?></a> [<b><?php echo $item[2] ?></b>] &raquo; 
            <?php else: ?>
            <a href="?class=<?php echo $item[1]; ?>"><?php echo $item[0]; ?></a>
            <?php endif ?>
        <?php endforeach; ?>
    </div>
>>

listPageMenu = <<
    <div class="menu">
        <a class="menu-button" href="?class=<?php echo $data['contextPath']?><%className:lowercase%>&method=form"><%it:addText%></a>
        <%it:searchButton%>
        <span class="menu-group" id="operation">
            <%operations:groupOperation(it)*:join%>
        </span>
    </div>
>>

requireJs = <<
>>

requireCss = <<
>>

cssFile(name) = <<
    <link rel="stylesheet" type="text/css" href="<%name%>" />
>>

scriptFile(name) = <<
    <script type="text/javascript" src="<%name%>"></script>
>>

translateIt = <<<%it%>>>

groupOperation[type = Group](class) = <<
    <a class="menu-button" href="?class=<?php echo $data['contextPath']?><%class.className:lowercase%>&method=<%name%>"><%name:translateIt%></a>
>>

searchButton = <<
    <a class="menu-button" href="?class=search&content=<%className:lowercase%>"><%it:searchText%></a>
>>

makeUrl(name) = <<
    ?class=<?php echo $data['contextPath']?><%className:lowercase%>&method=<%name%>
>>

navigationPages = <<
    <a href="<%it:makeUrl("index")%>&page=1">&laquo;</a>
    <a href="<%it:makeUrl("index")%>&page=<?php echo $data['pages']['previous']; ?>">&lsaquo;</a>
    <?php foreach($data['pages']['numbers'] as $page ): ?>
     <a class="<?php echo $page[1]?'active': ''; ?>" href="<%it:makeUrl("index")%>&page=<?php echo $page[0]; ?>" ><?php echo $page[0]; ?></a>
    <?php endforeach; ?>
    <a href="<%it:makeUrl("index")%>&page=<?php echo $data['pages']['next']; ?>">&rsaquo;</a>
    <a href="<%it:makeUrl("index")%>&page=<?php echo $data['pages']['last']; ?>">&raquo;</a>
>>

tableHeaderRow = <<
    <th width="20"></th>
    <th width="15"></th>
    <%fields:renderListHeader(it)*:join%>
>>

tableListHeader = <<
    <thead>
        <tr>
            <%it:tableHeaderRow%>
        </tr>
    </thead>
>>

tableBodyRow = <<
    <%it:itemMenu%>
    <td><input type="checkbox" value="<%it:rowIndex:echo%>" class="list-select" <?php echo $this->inBasket('<%it:tableName%>', <%it:rowIndex%>) ? 'checked' : '';  ?>/></td>
    <%fields:renderListColumn(it)*:join%>
>>

tableListBody = <<
    <tbody>
        <?php foreach ($data['list'] as $row): ?>
        <tr>
            <%it:tableBodyRow%>
        </tr>
        <?php endforeach; ?>
    </tbody>
>>

basketApi = <<
    data-provider="?class=<?php echo $data['contextPath']?><%className:lowercase%>&method=basket"
>>

tableList = <<
    <div class="pages">
        на странице <b><?php echo $data['pages']['start']; ?> - <?php echo $data['pages']['end']; ?></b> из <b><?php echo $data['count']; ?></b> 
        <%it:navigationPages%>
    </div>
    <table class="list" id="list-table" <%it:basketApi%>>
    <%it:tableListHeader%>
    <%it:tableListBody%>
    </table>
>>

itemMenu = <<
    <th>
        <span class="index"><?php echo $row['<%it:idName%>'] ?></span>
        <ul class="dropmenu">
            <%fields:fieldMenuSet(it)*:join%>
            <li><a href="?class=<?php echo $data['contextPath']?><%className:lowercase%>&method=view&id=<%it:rowIndex:echo%>"><%it:viewText%></a></li>
            <li><a href="?class=<?php echo $data['contextPath']?><%className:lowercase%>&method=form&id=<%it:rowIndex:echo%>"><%it:editText%></a></li>
            <li class="warning"><a href="?class=<?php echo $data['contextPath']?><%className:lowercase%>&method=delete&id=<%it:rowIndex:echo%>"><%it:deleteText%></a></li>
        </ul>
    </th>
>>

# Переход на список внутри некоторого класса
# fieldMenuSet = 
fieldMenuSet[type.className = List](parent) = <<
    <li><a href="?class=<?php echo $data['contextPath']?><%parent.className:lowercase%>/<?php echo $row['<%parent:indexName%>']; ?>/<%type.content.className:lowercase%>"><%it:labelMenu%></a></li>
>>

# Переход на список с фильтром по этому классу
fieldMenuSet[type.className = Set](parent) = <<
    <li><a href="?class=<?php echo $data['contextPath']?><%parent.className:lowercase%>/<?php echo $row['<%parent:indexName%>']; ?>/<%type.content.className:lowercase%>"><%it:labelMenu%></a></li>
>>

labelMenu = <<
    <%name%>
>>

# Article.renderListHeader = 
#renderListHeader[meta.visible = False] = << >> Правило для того чтобы не показывать поле таблицы
renderListHeader[type.className = Article](class) = << >>

# renderCell_Field
renderListColumn[type.className = Article] = << >>
renderListHeader[type.className = Code](class) = << >>

renderListHeader[type.className = Boolean](class) = << 
    <th width="15" title="<%it:labelHeader%>"><?php echo mb_substr('<%it:labelHeader%>', 0, 1, 'UTF-8'); ?></th>
>>

# renderHeader_Field(field, class) = 
renderListHeader[type.type = Class](class) = <<
    <th class="<?php echo ($data['order_key'] == '<%name%>') ? $data['order_dir'] : ''; ?>"><a href="?class=<?php echo $data['contextPath']?><%class.className:lowercase%>&order=<%name%>&dir=<?php echo $data['order_dir']?>"><%it:labelHeader%></a></th>
>>

renderListHeader[type.type = Primitive](class) = <<
    <th class="<?php echo ($data['order_key'] == '<%name%>') ? $data['order_dir'] : ''; ?>"><a href="?class=<?php echo $data['contextPath']?><%class.className:lowercase%>&order=<%name%>&dir=<?php echo $data['order_dir']?>"><%it:labelHeader%></a></th>
>>

labelHeader = <<
    <%name%>
>>

renderListColumn[type.type = Class] = <<
    <td class="custom-<%type.className:lowercase%>-<?php echo intval($row['<%name%>']);?>"><div><?php echo $row['<%name%>_data']?></div></td>
>>

renderListColumn[type.className = DateTime] = <<
    <td class="date"><div><?php echo formatDate('Y-m-d H:i', <%it:rowValue%>); ?></div></td>
>>

renderListColumn[type.className = Date] = <<
    <td class="date"><div><?php echo formatDate('Y-m-d', <%it:rowValue%>); ?></div></td>
>>

renderListColumn[type.className = Time] = <<
    <td class="date"><div><?php echo formatDate('H:i', <%it:rowValue%>); ?></div></td>
>>

renderListColumn[type.className = Code] = << >>

renderListColumn[type.className = Boolean] = << 
    <td class="check"><?php if(<%it:rowValue%> == 1): ?>&#10003;<?php endif; ?></td>
>>

renderListColumn[type.className = Integer] = <<
    <td><div><?php echo number_format(intval(<%it:rowValue%>)); ?></div></td>
>>

renderListColumn[type.className = Number] = <<
    <td><div><?php echo floatval(<%it:rowValue%>); ?></div></td>
>>

renderListColumn[type.type = Primitive] = <<
    <td><div><%it:rowValue:safe:echo%></div></td>
>>

renderEditPage = <<
    <%it:pathView%>
    <form method="post" action="?class=<?php echo $data['contextPath']?><%className:lowercase%>&method=add" class="form-add" enctype="multipart/form-data">
        <table>
            <%fields:renderFormField*:join%>
            <tr class="button-bar">
                <td><!--empty--></td>
                <td>
                    <button class="button" type="submit"><span><%it:saveText%></span></button> 
                    <button class="button" onclick="this.form.elements._apply.value='apply';"><span><%it:applyText%></span></button>
                    <%it:cancelButton%>
                    <input type="hidden" name="_apply" value="save"/>
                </td>
            </tr>
        </table>
        <input type="hidden" name="id" value="<?php echo Arr::get($data['data'], '<%it:indexName%>') ?>"/>            
    </form>
>>

cancelButton = <<
    <a class="button" href="?class=<?php echo $data['contextPath']?><%className:lowercase%>"><%it:cancelText%></a>
>>

renderFormField[type.className = Code] = <<
>>

# Все кроме
# Диспетчеризация не по типу а по структуре типа
# на самом деле renderInput_Field[type.className != List] тогда соглашение по названию будет такое функция_тип[структура] = действие
renderFormField[type.className != List] = <<
    <tr><th><label><%it:labelHeader%></label></th>
        <td><%it:renderFormInput%></td></tr>
>>

getData = <<
    Arr::get($data['data'], '<%name%>')
>>

value = <<
    <?php echo htmlspecialchars(<%it:getData%>) ?>
>>

dateTime = <<
    <?php echo toFormDateTime(<%it:getData%>) ?>
>>

time = <<
    <?php echo toFormTime(<%it:getData%>) ?>
>>

date = <<
    <?php echo toFormDate(<%it:getData%>) ?>
>>

renderFormInput[type.className = DateTime] = <<
    <input type="text" name="<%name%>" id="inp_<%name%>" class="input-datetime" value="<%it:dateTime%>" /> 
    <script>replaceTo('inp_<%name%>', DateTimeInput);</script>
>>

renderFormInput[type.className = Time] = <<
    <input type="text" id="inp_<%name%>" name="<%name%>" class="input-time" value="<%it:time%>"/>
    <script>replaceTo('inp_<%name%>', TimeInput);</script>
>>

dateInput(suffix) = <<
    <input type="text" id="inp_<%name%>_<%suffix%>" name="<%name%>_<%suffix%>" class="input-date" value=""/>
    <script>replaceTo('inp_<%name%>_<%suffix%>', DateInput);</script>
>>

# Может Date.renderFormInput
renderFormInput[type.className = Date] = <<
    <input type="text" id="inp_<%name%>" name="<%name%>" class="input-date" value="<%it:date%>"/>
    <script>replaceTo('inp_<%name%>', DateInput);</script>
>>

renderFormInput[type.className = File] = <<
    <input type="file" name="<%name%>" class="input-file"/>
>>

renderFormInput[type.className = String] = <<
    <input type="text" name="<%name%>" class="input-text" value="<%it:value%>"/>
>>

renderFormInput[type.className = Integer] = <<
    <input type="text" id="inp_<%name%>" name="<%name%>" class="input-integer" value="<%it:value%>"/>
    <script>replaceTo('inp_<%name%>', NumberInput);</script>
>>

renderFormInput[type.className = Number] = <<
    <input type="number" id="inp_<%name%>" name="<%name%>" class="input-number" value="<%it:value%>"/>
    <script>replaceTo('inp_<%name%>', NumberInput);</script>
>>

renderFormInput[type.className = Text] = <<
    <textarea name="<%name%>" class="input-textarea"><%it:value%></textarea>
>>

renderFormInput[type.className = Boolean] = <<
    <input type="checkbox" name="<%name%>" class="list-select" value="1" <?php echo (<%it:getData%>) ? 'checked' : '' ?>/>
>>

renderFormInput[type.className = Article] = <<
    <textarea name="<%name%>" class="input-article"><%it:value%></textarea>
>>

dataProvider = <<
    data-provider="?class=<?php echo $data['contextPath']?><%parent.className:lowercase%>&method=<%name%>_data"
>>

# Для класса создаем список выбора
renderFormInput[type.type = Class] = <<
    <select name="<%name%>" id="inp_<%name%>" <%it:dataProvider%>>
        <?php if (is_array($data['<%name%>_data'])) foreach($data['<%name%>_data'] as $item): ?>
            <option <?php echo ((Arr::get($data['data'], '<%name%>') == $item['key'])? 'selected' : '') ?> value="<?php echo $item['key']; ?>"><?php echo $item['value']; ?></option>
        <?php endforeach; ?>
    </select>
    <script>replaceSelect('inp_<%name%>', SelectPages);</script>
>>

# + , metadata hasKey display, metadata.display.value = Checkbox
renderFormInput[type.className = Set, metadata hasKey display, metadata.display.value = Set] = <<
    <?php if (is_array($data['<%name%>_data'])) foreach($data['<%name%>_data'] as $item): ?>
        <div><input class="list-select" type="checkbox" name="<%name%>[]" <?php echo (in_array($item['key'], Arr::get($data['data'], '<%name%>'))? 'checked' : '') ?> value="<?php echo $item['key']; ?>"><?php echo $item['value']; ?></div>
    <?php endforeach; ?>
>>

# Для списка тоже создаем select
renderFormInput[type.className = Set] = <<
    <select name="<%name%>[]" id="inp_<%name%>" multiple="true" <%it:dataProvider%>>
        <?php if (is_array($data['<%name%>_data'])) foreach($data['<%name%>_data'] as $item): ?>
            <option <?php echo (in_array($item['key'], Arr::get($data['data'], '<%name%>'))? 'selected' : '') ?> value="<?php echo $item['key']; ?>"><?php echo $item['value']; ?></option>
        <?php endforeach; ?>
    </select>
    <script>replaceSelect('inp_<%name%>', SelectMultiPages);</script>
>>

# Уникальны для класа и создаются отдельно
renderFormInput[type.className = List] = <<
>>
