# <%%>
lorem = <<
    <p>Lorem ipsum dolor sit amet, consectetur adipiscing elit. Maecenas congue diam ac augue semper pretium. Pellentesque vitae 
       lorem vel justo blandit convallis vitae nec massa. In ultricies, est non tempus auctor, leo sapien elementum felis, a suscipit 
       tellus nisi id purus. Pellentesque malesuada enim id odio tempor sollicitudin. Nunc quis lacus eget elit commodo sodales. In hac 
       habitasse platea dictumst. Aliquam a nibh ut quam eleifend mollis at eu ipsum. Mauris lacinia, risus id rhoncus facilisis, ante 
       nulla fringilla libero, vel iaculis sapien lacus ut elit.</p>

    <p>Maecenas consectetur libero eu nunc posuere vitae porta leo rhoncus. Pellentesque aliquet mauris non nunc ultrices blandit. 
       Phasellus dapibus ultrices velit et posuere. Morbi sit amet eros purus, vel porta neque. Vivamus dolor ligula, ornare in 
       imperdiet sed, blandit nec mauris. Fusce quis odio a magna fermentum sollicitudin. Nam at massa ac odio congue vehicula et 
       vitae felis. Sed consectetur, dolor id ultrices lobortis, nunc dui consequat quam, pulvinar ultricies nibh purus non massa. 
       Fusce laoreet libero quis lacus lacinia posuere.</p>

    <p>Sed ut metus rhoncus mi mollis faucibus. Nunc commodo, orci a eleifend pretium, enim lacus posuere erat, et varius tellus 
       magna id massa. In nibh purus, lobortis ac gravida ut, viverra ac nibh. Vivamus euismod viverra magna eu tincidunt. Curabitur 
       placerat adipiscing enim vel vehicula. Nullam et risus dui. Quisque auctor pretium libero.</p>
>>